{
    "docs": [
        {
            "_id": "5cd96e05de30eff6ebcce7e9",
            "dialog": "Deagol!",
            "movie": "5cd95395de30eff6ebccde5d",
            "character": "5cd99d4bde30eff6ebccfe9e",
            "id": "5cd96e05de30eff6ebcce7e9"
        }
    ],
    "total": 2384,
    "limit": 1,
    "offset": 0,
    "page": 1,
    "pages": 239
}